face_align/thinh/01.png 379 716 1313 1873
face_align/thinh/02.png 527 812 1599 1875
face_align/thinh/03.png 1458 166 2129 967
face_align/thinh/04.png 1210 960 1289 1052
face_align/thinh/05.png 580 444 1224 1241
face_align/thinh/06.png 490 651 1282 1583
face_align/thinh/07.png 436 565 1212 1445
face_align/thinh/08.png 438 634 1315 1670
face_align/thinh/09.png 322 575 1228 1628
